{
    "/assets/js/app.js": "/assets/js/app.js?id=3ff676ffba5f37a166bd",
    "/assets/css/style.css": "/assets/css/style.css?id=480940681ac999d115e7",
    "/assets/js/app.js.map": "/assets/js/app.js.map?id=a2085eee8ac73b8b1f08",
    "/assets/css/style.css.map": "/assets/css/style.css.map?id=33eb35e5e957b1e7dadb",
    "/assets/js/vendor.js": "/assets/js/vendor.js?id=de9f1bcfc65c06ba1438",
    "/assets/js/vendor.js.map": "/assets/js/vendor.js.map?id=9b36874fcbee352c2643",
    "/assets/js/manifest.js": "/assets/js/manifest.js?id=d82724db4398b5e252f2",
    "/assets/js/manifest.js.map": "/assets/js/manifest.js.map?id=fdf36f2cfd3eda73efe5"
}